{

    "Products":[
                {
        "Name" : "Potato",
        "Discription" : "5 Kg",
        "Price" : "100",
        "Key" : "Buy"
                },
                {
        "Name" : "Milk",
        "Discription" : "1 L",
        "Price" : "200",
        "Key" : "Sale"
                },
                {
        "Name" : "Fish",
        "Discription" : "1 qty",
        "Price" : "300",
        "Key" : "Sale"
                },
                {
        "Name" : "Cheese",
        "Discription" : "250 g",
        "Price" : "400",
        "Key" : "Sale"
                },
                {
        "Name" : "Water",
        "Discription" : "1 L",
        "Price" : "500",
        "Key" : "Sale"
                }
    ]
}